CRITICAL - 2021-05-24 00:52:17 --> A non well formed numeric value encountered
#0 C:\xampp\htdocs\mkg\app\Controllers\Kas_masuk.php(80): CodeIgniter\Debug\Exceptions->errorHandler(8, 'A non well form...', 'C:\\xampp\\htdocs...', 80, Array)
#1 C:\xampp\htdocs\mkg\vendor\codeigniter4\framework\system\CodeIgniter.php(918): App\Controllers\Kas_masuk->action_add()
#2 C:\xampp\htdocs\mkg\vendor\codeigniter4\framework\system\CodeIgniter.php(404): CodeIgniter\CodeIgniter->runController(Object(App\Controllers\Kas_masuk))
#3 C:\xampp\htdocs\mkg\vendor\codeigniter4\framework\system\CodeIgniter.php(312): CodeIgniter\CodeIgniter->handleRequest(NULL, Object(Config\Cache), false)
#4 C:\xampp\htdocs\mkg\public\index.php(45): CodeIgniter\CodeIgniter->run()
#5 C:\xampp\htdocs\mkg\vendor\codeigniter4\framework\system\Commands\Server\rewrite.php(34): require_once('C:\\xampp\\htdocs...')
#6 {main}
CRITICAL - 2021-05-24 00:52:23 --> A non well formed numeric value encountered
#0 C:\xampp\htdocs\mkg\app\Controllers\Kas_masuk.php(80): CodeIgniter\Debug\Exceptions->errorHandler(8, 'A non well form...', 'C:\\xampp\\htdocs...', 80, Array)
#1 C:\xampp\htdocs\mkg\vendor\codeigniter4\framework\system\CodeIgniter.php(918): App\Controllers\Kas_masuk->action_add()
#2 C:\xampp\htdocs\mkg\vendor\codeigniter4\framework\system\CodeIgniter.php(404): CodeIgniter\CodeIgniter->runController(Object(App\Controllers\Kas_masuk))
#3 C:\xampp\htdocs\mkg\vendor\codeigniter4\framework\system\CodeIgniter.php(312): CodeIgniter\CodeIgniter->handleRequest(NULL, Object(Config\Cache), false)
#4 C:\xampp\htdocs\mkg\public\index.php(45): CodeIgniter\CodeIgniter->run()
#5 C:\xampp\htdocs\mkg\vendor\codeigniter4\framework\system\Commands\Server\rewrite.php(34): require_once('C:\\xampp\\htdocs...')
#6 {main}
